{
    "KPlugin": {
        "Authors": [
            {
                "Email": "simon.esneault@gmail.com",
                "Name": "Simon Esneault",
                "Name[bg]": "Simon Esneault",
                "Name[ca@valencia]": "Simon Esneault",
                "Name[ca]": "Simon Esneault",
                "Name[cs]": "Simon Esneault",
                "Name[en_GB]": "Simon Esneault",
                "Name[eo]": "Simon Esneault",
                "Name[es]": "Simon Esneault",
                "Name[fr]": "Simon Esneault",
                "Name[gl]": "Simon Esneault",
                "Name[ia]": "Simon Esneault",
                "Name[it]": "Simon Esneault",
                "Name[nl]": "Simon Esneault",
                "Name[sl]": "Simon Esneault",
                "Name[sv]": "Simon Esneault",
                "Name[tr]": "Simon Esneault",
                "Name[uk]": "Simon Esneault",
                "Name[x-test]": "xxSimon Esneaultxx",
                "Name[zh_TW]": "Simon Esneault"
            }
        ],
        "Category": "Multimedia",
        "Dependencies": [],
        "Description": "Photos applet for Amarok",
        "Description[bg]": "Приставка за снимки на Amarok",
        "Description[ca@valencia]": "Miniaplicació de fotos per a Amarok",
        "Description[ca]": "Miniaplicació de fotos per a l'Amarok",
        "Description[cs]": "Applet fotek pro Amarok",
        "Description[en_GB]": "Photos applet for Amarok",
        "Description[eo]": "Apleto pri fotoj por Amarok",
        "Description[es]": "Miniaplicación de fotos para Amarok",
        "Description[fr]": "Applet de photos pour Amarok",
        "Description[gl]": "Trebello de fotos para Amarok.",
        "Description[it]": "Applet delle foto per Amarok",
        "Description[nl]": "Foto's-applet voor Amarok",
        "Description[sl]": "Applet fotografij za Amarok",
        "Description[sv]": "Fotominiprogram för Amarok",
        "Description[tr]": "Amarok için fotoğraflar uygulamacığı",
        "Description[uk]": "Аплет фотографій для Amarok",
        "Description[x-test]": "xxPhotos applet for Amarokxx",
        "Description[zh_TW]": "Amarok 的圖片小程式",
        "EnabledByDefault": true,
        "Icon": "photos-amarok",
        "Id": "org.kde.amarok.photos",
        "License": "GPL",
        "Name": "Photos",
        "Name[bg]": "Снимки",
        "Name[bs]": "Fotografije",
        "Name[ca@valencia]": "Fotos",
        "Name[ca]": "Fotos",
        "Name[cs]": "Fotky",
        "Name[csb]": "Òdjimczi",
        "Name[da]": "Fotos",
        "Name[de]": "Fotos",
        "Name[el]": "Φωτογραφίες",
        "Name[en_GB]": "Photos",
        "Name[eo]": "Fotoj",
        "Name[es]": "Fotos",
        "Name[et]": "Fotod",
        "Name[eu]": "Argazkiak",
        "Name[fa]": "عکسها",
        "Name[fi]": "Valokuvat",
        "Name[fr]": "Photos",
        "Name[ga]": "Grianghraif",
        "Name[gl]": "Fotos",
        "Name[hu]": "Fotók",
        "Name[ia]": "Photos",
        "Name[id]": "Foto",
        "Name[is]": "Ljósmyndir",
        "Name[it]": "Fotografie",
        "Name[ja]": "写真",
        "Name[ka]": "ფოტოები",
        "Name[km]": "រូប​ថត",
        "Name[ko]": "사진",
        "Name[lt]": "Nuotraukos",
        "Name[lv]": "Fotogrāfijas",
        "Name[mai]": "फोटो",
        "Name[mr]": "फोटो",
        "Name[nb]": "Fotoer",
        "Name[nds]": "Fotos",
        "Name[nl]": "Foto's",
        "Name[nn]": "Bilete",
        "Name[pa]": "ਫੋਟੋ",
        "Name[pl]": "Zdjęcia",
        "Name[pt]": "Fotografias",
        "Name[pt_BR]": "Fotos",
        "Name[ro]": "Fotografii",
        "Name[ru]": "Фотографии",
        "Name[sk]": "Fotografie",
        "Name[sl]": "Fotografije",
        "Name[sq]": "Fotografitë",
        "Name[sr@ijekavian]": "Фотографије",
        "Name[sr@ijekavianlatin]": "Fotografije",
        "Name[sr@latin]": "Fotografije",
        "Name[sr]": "Фотографије",
        "Name[sv]": "Foton",
        "Name[th]": "ภาพถ่าย",
        "Name[tr]": "Fotoğraflar",
        "Name[ug]": "سۈرەتلەر",
        "Name[uk]": "Фотографії",
        "Name[x-test]": "xxPhotosxx",
        "Name[zh_CN]": "照片",
        "Name[zh_TW]": "Photos",
        "ServiceTypes": [
            "KPackage/Generic",
            "Amarok/ContextApplet"
        ],
        "Version": "1",
        "Website": "https://amarok.kde.org/"
    },
    "X-KDE-ParentApp": "amarok"
}
