{
    "KPlugin": {
        "Authors": [
            {
                "Email": "nhnFreespirit@gmail.com",
                "Name": "Nikolaj Hald Nielsen",
                "Name[bg]": "Nikolaj Hald Nielsen",
                "Name[ca@valencia]": "Nikolaj Hald Nielsen",
                "Name[ca]": "Nikolaj Hald Nielsen",
                "Name[cs]": "Nikolaj Hald Nielsen",
                "Name[en_GB]": "Nikolaj Hald Nielsen",
                "Name[eo]": "Nikolaj Hald Nielsen",
                "Name[es]": "Nikolaj Hald Nielsen",
                "Name[fr]": "Nikolaj Hald Nielsen",
                "Name[gl]": "Nikolaj Hald Nielsen",
                "Name[ia]": "Nikolaj Hald Nielsen",
                "Name[it]": "Nikolaj Hald Nielsen",
                "Name[nl]": "Nikolaj Hald Nielsen",
                "Name[sl]": "Nikolaj Hald Nielsen",
                "Name[sv]": "Nikolaj Hald Nielsen",
                "Name[tr]": "Nikolaj Hald Nielsen",
                "Name[uk]": "Nikolaj Hald Nielsen",
                "Name[x-test]": "xxNikolaj Hald Nielsenxx",
                "Name[zh_TW]": "Nikolaj Hald Nielsen"
            }
        ],
        "Category": "Service",
        "Description": "Listen to music from an Ampache server",
        "Description[bg]": "Слушане на музика от Ampache сървър",
        "Description[ca@valencia]": "Escolta música des d'un servidor Ampache",
        "Description[ca]": "Escolta música des d'un servidor Ampache",
        "Description[cs]": "Poslouchejte hudbu ze serveru Ampache",
        "Description[en_GB]": "Listen to music from an Ampache server",
        "Description[eo]": "Aŭskultu muzikon el Ampache-servilo",
        "Description[es]": "Escuchar música desde el servidor Ampache",
        "Description[fr]": "Écouter de la musique depuis un serveur « Ampache »",
        "Description[gl]": "Escoite música dun servizo Ampache.",
        "Description[it]": "Ascolta musica da un server Ampache",
        "Description[nl]": "Luister naar muziek vanaf een Ampache-server",
        "Description[sl]": "Poslušanje glasbe s strežnika Ampache",
        "Description[sv]": "Lyssna på musik från en Ampache-server",
        "Description[tr]": "Bir Ampache sunucusundan müzik dinle",
        "Description[uk]": "Прослуховування музики з сервера Ampache",
        "Description[x-test]": "xxListen to music from an Ampache serverxx",
        "Description[zh_TW]": "從 Ampache 伺服器上聽音樂",
        "EnabledByDefault": false,
        "Icon": "view-services-ampache-amarok",
        "Id": "amarok_service_ampache",
        "License": "GPL",
        "Name": "Ampache",
        "Name[bg]": "Ampache",
        "Name[bs]": "Ampache",
        "Name[ca@valencia]": "Ampache",
        "Name[ca]": "Ampache",
        "Name[cs]": "Ampache",
        "Name[da]": "Ampache",
        "Name[de]": "Ampache",
        "Name[el]": "Ampache",
        "Name[en_GB]": "Ampache",
        "Name[eo]": "Ampache",
        "Name[es]": "Ampache",
        "Name[et]": "Ampache",
        "Name[eu]": "Ampache",
        "Name[fi]": "Ampache",
        "Name[fr]": "Ampache",
        "Name[ga]": "Ampache",
        "Name[gl]": "Ampache",
        "Name[hu]": "Ampache",
        "Name[ia]": "Ampache",
        "Name[id]": "Ampache",
        "Name[is]": "Ampache",
        "Name[it]": "Ampache",
        "Name[ja]": "Ampache",
        "Name[ka]": "Ampache",
        "Name[km]": "Ampache",
        "Name[ko]": "Ampache",
        "Name[lt]": "Ampache",
        "Name[lv]": "Ampache",
        "Name[nb]": "Ampache",
        "Name[nds]": "Ampache",
        "Name[nl]": "Ampache",
        "Name[nn]": "Ampache",
        "Name[pa]": "ਅਮਪਾਂਚੇ",
        "Name[pl]": "Ampache",
        "Name[pt]": "Ampache",
        "Name[pt_BR]": "Ampache",
        "Name[ro]": "Ampache",
        "Name[ru]": "Ampache",
        "Name[sk]": "Ampache",
        "Name[sl]": "Ampache",
        "Name[sq]": "Ampache",
        "Name[sr@ijekavian]": "Ампач",
        "Name[sr@ijekavianlatin]": "Ampache",
        "Name[sr@latin]": "Ampache",
        "Name[sr]": "Ампач",
        "Name[sv]": "Ampache",
        "Name[th]": "บริการ Ampache",
        "Name[tr]": "Ampache",
        "Name[uk]": "Ampache",
        "Name[wa]": "Ampache",
        "Name[x-test]": "xxAmpachexx",
        "Name[zh_CN]": "Ampache",
        "Name[zh_TW]": "Ampache ",
        "ServiceTypes": [
            "Amarok/Plugin"
        ],
        "Version": "1.0"
    },
    "X-KDE-Amarok-authors": [
        "Nikolaj Hald Nielsen"
    ],
    "X-KDE-Amarok-email": [
        "nhnFreespirit@gmail.com"
    ],
    "X-KDE-Amarok-framework-version": 76,
    "X-KDE-Amarok-name": "AmpacheService",
    "X-KDE-Amarok-rank": 100,
    "X-KDE-Amarok-version": 1
}
